PR2
…
Accesorios y Otros

Y, ¿Cómo clasificar las amenities que son tan diversas entre sí de
manera correcta? Echemos un vistazo a los distintos tipos de
amenities:

# Extraer todos los elementos únicos
unique_amenities <-df_clean %>%
  mutate(amenities = str_remove_all(amenities, "\\[|\\]|'")) %>% 
  separate_rows(amenities, sep = ", ") %>%                     
  distinct(amenities) %>%                                      
  arrange(amenities) 
unique_amenities

## # A tibble: 243 x 1
##    amenities                         
##    <chr>                             
##  1 Acceso a la playa                 
##  2 Acceso al lago                    
##  3 Acceso al resort                  
##  4 Acceso compartido a la playa      
##  5 Acceso gratuito al complejo       
##  6 Acondicionador                    
##  7 Acondicionador de Marcas francesas
##  8 Admite mascotas                   
##  9 Agua caliente                     
## 10 Aire acondicionado                
## # ... with 233 more rows
…
Esto es un paso fundamental para asegurar el buen funcionamiento de
los algoritmos. Escalaremos únicamente las variables númericas

# Ensure the columns are numeric and remove rows with NA values
scaled_data <- data_clean_na %>%
  mutate(across(c(price, rating, n_rating), as.numeric)) %>%
  drop_na(price, rating, n_rating)

# Scale the relevant columns
scaled_data[c("price", "rating", "n_rating")] <- scale(scaled_data[c("price", "rating", "n_rating")])

# View the scaled data
scaled_data

## # A tibble: 75 x 3
##     rating n_rating  price
##      <dbl>    <dbl>  <dbl>
##  1 -1.06      4.49  -0.689
##  2  0.898    -0.723 -0.300
##  3 -0.208    -0.135  0.284
##  4  0.971    -0.464 -0.592
##  5  1.12     -0.765 -0.819
##  6  0.198    -0.516 -0.397
##  7 -0.134    -0.243 -0.786
##  8 -2.16      0.204 -1.05 
##  9 -1.35      0.411 -0.170
## 10  0.0870    4.13   1.32 
## # ... with 65 more rows
…
